G04 EAGLE Gerber RS-274X export*
G75*
%MOMM*%
%FSLAX34Y34*%
%LPD*%
%INSoldermask Top*%
%IPPOS*%
%AMOC8*
5,1,8,0,0,1.08239X$1,22.5*%
G01*
%ADD10C,1.371600*%
%ADD11R,0.801600X1.251600*%
%ADD12R,1.251600X0.801600*%
%ADD13R,0.801600X0.801600*%
%ADD14R,1.151600X0.401600*%
%ADD15R,0.401600X1.151600*%
%ADD16R,4.301600X4.301600*%
%ADD17R,2.101600X1.301600*%
%ADD18C,1.976600*%
%ADD19C,3.995600*%
%ADD20R,1.151600X0.751600*%
%ADD21R,0.901600X0.901600*%
%ADD22R,0.601600X0.701600*%
%ADD23R,0.701600X0.601600*%
%ADD24R,1.981200X1.981200*%
%ADD25C,1.981200*%


D10*
X168910Y130810D03*
X344170Y11430D03*
D11*
X210900Y50850D03*
X220900Y50850D03*
X230900Y50850D03*
X240900Y50850D03*
X250900Y50850D03*
X260900Y50850D03*
X270900Y50850D03*
X280900Y50850D03*
X290900Y50850D03*
X300900Y50850D03*
D12*
X300150Y72100D03*
X300150Y82100D03*
X300150Y92100D03*
X300150Y102100D03*
X300150Y112100D03*
D11*
X300900Y133350D03*
X290900Y133350D03*
X280900Y133350D03*
X270900Y133350D03*
X260900Y133350D03*
X250900Y133350D03*
X240900Y133350D03*
X230900Y133350D03*
X220900Y133350D03*
X210900Y133350D03*
D12*
X211650Y112100D03*
X211650Y102100D03*
X211650Y92100D03*
X211650Y82100D03*
X211650Y72100D03*
D13*
X225400Y64600D03*
X225400Y75600D03*
X225400Y86600D03*
X225400Y97600D03*
X225400Y108600D03*
X225400Y119600D03*
X238700Y86350D03*
X238700Y97850D03*
X250200Y74850D03*
X250200Y86350D03*
X250200Y97850D03*
X250200Y109350D03*
X261700Y86350D03*
X261700Y97850D03*
X273200Y74850D03*
X273200Y86350D03*
X273200Y97850D03*
X273200Y109350D03*
D14*
X92700Y107000D03*
X92700Y102000D03*
X92700Y97000D03*
X92700Y92000D03*
X92700Y87000D03*
X92700Y82000D03*
X92700Y77000D03*
X92700Y72000D03*
X92700Y67000D03*
D15*
X101200Y58500D03*
X106200Y58500D03*
X111200Y58500D03*
X116200Y58500D03*
X121200Y58500D03*
X126200Y58500D03*
X131200Y58500D03*
X136200Y58500D03*
X141200Y58500D03*
D14*
X149700Y67000D03*
X149700Y72000D03*
X149700Y77000D03*
X149700Y82000D03*
X149700Y87000D03*
X149700Y92000D03*
X149700Y97000D03*
X149700Y102000D03*
X149700Y107000D03*
D15*
X141200Y115500D03*
X136200Y115500D03*
X131200Y115500D03*
X126200Y115500D03*
X121200Y115500D03*
X116200Y115500D03*
X111200Y115500D03*
X106200Y115500D03*
X101200Y115500D03*
D16*
X121200Y87000D03*
D17*
X54750Y53000D03*
X54750Y78000D03*
X54750Y98000D03*
X54750Y123000D03*
D18*
X28750Y110500D03*
X28750Y65500D03*
D19*
X28750Y146500D03*
X28750Y29500D03*
D20*
X125750Y169250D03*
X84250Y169250D03*
X84250Y147750D03*
X125750Y147750D03*
X183750Y169250D03*
X142250Y169250D03*
X142250Y147750D03*
X183750Y147750D03*
D21*
X250400Y163900D03*
X235400Y163900D03*
X272000Y163700D03*
X287000Y163700D03*
D22*
X93700Y134900D03*
X82700Y134900D03*
X219500Y164000D03*
X208500Y164000D03*
X302200Y163700D03*
X313200Y163700D03*
D23*
X106200Y42900D03*
X106200Y31900D03*
X124200Y42900D03*
X124200Y31900D03*
X323700Y19000D03*
X323700Y8000D03*
X310300Y18800D03*
X310300Y7800D03*
X296700Y18800D03*
X296700Y7800D03*
D24*
X163500Y14770D03*
D25*
X188900Y12230D03*
X214300Y14770D03*
X239700Y12230D03*
D23*
X269700Y18800D03*
X269700Y7800D03*
X283400Y18800D03*
X283400Y7800D03*
M02*
