G04 EAGLE Gerber RS-274X export*
G75*
%MOMM*%
%FSLAX34Y34*%
%LPD*%
%INSolderpaste Bottom*%
%IPPOS*%
%AMOC8*
5,1,8,0,0,1.08239X$1,22.5*%
G01*
%ADD10R,2.000000X0.650000*%
%ADD11R,2.000000X3.200000*%
%ADD12R,1.500000X0.800000*%
%ADD13R,1.900000X1.400000*%
%ADD14R,1.400000X1.800000*%
%ADD15R,0.600000X0.500000*%
%ADD16R,0.500000X0.600000*%
%ADD17C,0.519400*%


D10*
X77900Y9900D03*
X77900Y22600D03*
X77900Y35300D03*
X77900Y48000D03*
X77900Y60700D03*
D11*
X137900Y35300D03*
D12*
X304413Y80613D03*
X302413Y91613D03*
X304413Y102613D03*
X306413Y113613D03*
X304413Y124613D03*
X306413Y135613D03*
X304413Y146613D03*
X304413Y157613D03*
D13*
X342913Y34113D03*
X332913Y165613D03*
D14*
X201413Y149613D03*
X201413Y92613D03*
D15*
X152400Y60900D03*
X152400Y49900D03*
X106200Y117000D03*
X106200Y106000D03*
D16*
X57500Y169500D03*
X68500Y169500D03*
X57500Y156500D03*
X68500Y156500D03*
D15*
X118700Y117000D03*
X118700Y106000D03*
D17*
X135003Y95403D02*
X135003Y89597D01*
X130397Y89597D01*
X130397Y95403D01*
X135003Y95403D01*
X135003Y94531D02*
X130397Y94531D01*
X135003Y111597D02*
X135003Y117403D01*
X135003Y111597D02*
X130397Y111597D01*
X130397Y117403D01*
X135003Y117403D01*
X135003Y116531D02*
X130397Y116531D01*
X152003Y117403D02*
X152003Y111597D01*
X147397Y111597D01*
X147397Y117403D01*
X152003Y117403D01*
X152003Y116531D02*
X147397Y116531D01*
X152003Y95403D02*
X152003Y89597D01*
X147397Y89597D01*
X147397Y95403D01*
X152003Y95403D01*
X152003Y94531D02*
X147397Y94531D01*
D16*
X151200Y77000D03*
X140200Y77000D03*
X91200Y82000D03*
X102200Y82000D03*
D15*
X93700Y106000D03*
X93700Y117000D03*
X139500Y60700D03*
X139500Y49700D03*
M02*
